package paiza;
import java.io.*;
import java.util.*;

public class Main {
	public static void main(String[] args) {
		
		
		
		Scanner sc = new Scanner(System.in);
		
		
		int N = sc.nextInt();
		String s = sc.nextLine();
		
		
		
		for (int i = 0; i <= N; i++) {
			ArrayList<String> strike = new ArrayList<String>();
			ArrayList<String> ball = new ArrayList<String>();
			
			
			
			if (s == "strike") {
				strike.add(s);
			} else if (s == "ball") {
				ball.add(s);
			}
			
			if (strike.size() == 3) {
				System.out.println("out!");
			} else if (ball.size() == 4) {
				System.out.println("fourball!");
			}
			
			System.out.println(s + "!");
		}
		
		
		
	}
}
